{
  "AccountDetailResponse": {
      "AccountDetailRequest": {
    	  "AccountNumber": "71157663"
  	  },
	  "AccountDetailSummary": [
	    { 
	      "AccountStatus": "ACTIVE",
	      "CurrentMaturityDate": "2025-04-03T00:00:00-05:00",
	      "CurrentPayOffAmount": 1234.01,
	      "DueDelinquentAmount": 1234.01,
	      "DueTotalAmount": 1234.01,
	      "FuturePayOffAmount": 1234.01,
	      "FuturePayOffDate": "2020-03-11T00:00:00-05:00",
	      "LastPaymentAmount": 1234.01,
	      "LastPaymentDate": "2019-06-17T00:00:00-05:00",
	      "NextDueDate": "2020-02-03T00:00:00-06:00",
	      "NextPaymentDueAmount": 1234.01,   
	      "NextPaymentDueDate": "2020-02-08T00:00:00-06:00",	      
	      "Custom": {
	        "StringData": [
	          {
	            "KeyName": "LEGAL_STATUS",
	            "KeyValue": "Y"
	          }
	        ],
	        "DateData": [
      		  {
        		"KeyName": "FUTURE_PMT_DT",
        		"KeyValue": "2018-03-01T00:00:00-00:00"
      		  },
      		  {
        		"KeyName": "OLDEST_DUE_DT",
        		"KeyValue": "2018-03-02T00:00:00-00:00"
      		  }
    		],
    		"NumberData": [
    		  {
    			"KeyName": "FUTURE_PMT_AMT",
        		"KeyValue": 1234.01
    		  }
    		]
	      },
	      "CustomerDetails": [
	        {
	          "SSN": "xxxxx0032",
	          "RelationType": "PRIM"
	        }
	      ],
	      "AccountBalances": {
	        "AccountBalance": [
	          {
	            "AvailableTransactionType": "INT",
	            "BalancePaidInCurrentYear": 306.17,
	            "BalancePaidInPreviousYear": 842.11
	          }
	        ]
	      }      
	  }],
	  "Result": {
	    "Status": "SUCCESS",
	    "StatusDetails": "Account Detail Fetched Successfully"
	  }
  }
}